…
Several key variables contain many NA values:

`prcp`: 5.61958% missing value. `snow`: 14.68960% missing value. `snwd`:
22.80331% missing value. `tmax`: 43.71025% missing value. `tmin`:
43.71264% missing value.

**data cleaning**

``` r
ny_noaa %>% 
  count(snow) %>%
  arrange(desc(n))
```

    ## # A tibble: 282 × 2
    ##     snow       n
    ##    <int>   <int>
    ##  1     0 2008508
    ##  2    NA  381221
    ##  3    25   31022
    ##  4    13   23095
    ##  5    51   18274
    ##  6    76   10173
    ##  7     8    9962
    ##  8     5    9748
    ##  9    38    9197
    ## 10     3    8790
    ## # ℹ 272 more rows
…
